03.demo.utf8.md
…
##  Attaching packages  tidyverse 1.2.1 

##  ggplot2 3.0.0      purrr   0.2.5
##  tibble  1.4.2      dplyr   0.7.6
##  tidyr   0.8.1      stringr 1.3.1
##  readr   1.1.1      forcats 0.3.0

##  Conflicts  tidyverse_conflicts() 
##  dplyr::filter() masks stats::filter()
##  dplyr::lag()    masks stats::lag()

library(gapminder)
gapminder

## # A tibble: 1,704 x 6
##    country     continent  year lifeExp      pop gdpPercap
##    <fct>       <fct>     <int>   <dbl>    <int>     <dbl>
##  1 Afghanistan Asia       1952    28.8  8425333      779.
##  2 Afghanistan Asia       1957    30.3  9240934      821.
##  3 Afghanistan Asia       1962    32.0 10267083      853.
##  4 Afghanistan Asia       1967    34.0 11537966      836.
##  5 Afghanistan Asia       1972    36.1 13079460      740.
##  6 Afghanistan Asia       1977    38.4 14880372      786.
##  7 Afghanistan Asia       1982    39.9 12881816      978.
##  8 Afghanistan Asia       1987    40.8 13867957      852.
##  9 Afghanistan Asia       1992    41.7 16317921      649.
## 10 Afghanistan Asia       1997    41.8 22227415      635.
## # ... with 1,694 more rows
…
Interpreting regression coefficients

supermodel <- read_tsv("supermodel.dat")

## Parsed with column specification:
## cols(
##   salary = col_double(),
##   age = col_double(),
##   years = col_double(),
##   beauty = col_double()
## )

supermodel

## # A tibble: 231 x 4
##     salary   age years beauty
##      <dbl> <dbl> <dbl>  <dbl>
##  1  0.370   16.7  3.15   78.3
##  2 53.7     20.3  5.51   68.6
##  3  1.46    18.2  5.33   75.0
##  4  0.0243  15.4  3.84   65.1
##  5 95.3     24.2  8.53   71.8
##  6 14.6     18.3  4.39   78.1
##  7  8.67    17.7  4.40   72.1
##  8  2.65    17.5  4.11   75.3
##  9  7.55    17.1  3.52   72.0
## 10  1.20    20.1  6.83   71.9
## # ... with 221 more rows
…
Correlations among preditors

x1 <- rnorm(100)
x2 <- 2 * x1 + rnorm(100, sd = 0.1)
y <- 3 + 2 * x1 + rnorm(100, sd = 0.5)
(example <- tibble(y = y, x1 = x1, x2 = x2))

## # A tibble: 100 x 3
##        y     x1     x2
##    <dbl>  <dbl>  <dbl>
##  1 4.40   0.543  1.21 
##  2 0.917 -0.880 -1.60 
##  3 5.71   1.51   3.02 
##  4 5.76   1.29   2.72 
##  5 4.73   1.02   2.00 
##  6 1.34  -1.15  -2.24 
##  7 6.93   1.83   3.73 
##  8 3.76   0.295  0.699
##  9 3.88   0.208  0.539
## 10 1.92  -0.426 -0.940
## # ... with 90 more rows
…
Qualitative Predictor

gapminder %>% distinct(country)

## # A tibble: 142 x 1
##    country    
##    <fct>      
##  1 Afghanistan
##  2 Albania    
##  3 Algeria    
##  4 Angola     
##  5 Argentina  
##  6 Australia  
##  7 Austria    
##  8 Bahrain    
##  9 Bangladesh 
## 10 Belgium    
## # ... with 132 more rows
…
